%YAML 1.1
%TAG !u! tag:unity3d.com,2011:
--- !u!114 &11400000
MonoBehaviour:
  m_ObjectHideFlags: 0
  m_CorrespondingSourceObject: {fileID: 0}
  m_PrefabInstance: {fileID: 0}
  m_PrefabAsset: {fileID: 0}
  m_GameObject: {fileID: 0}
  m_Enabled: 1
  m_EditorHideFlags: 0
  m_Script: {fileID: 11500000, guid: b9760ca9d81d7ded887c4a9de1e87459, type: 3}
  m_Name: ItemDatabase
  m_EditorClassIdentifier: 
  itemLists:
  - {fileID: 11400000, guid: e1f82e8195b482480be68a93c6afad20, type: 2}
