%YAML 1.1
%TAG !u! tag:unity3d.com,2011:
--- !u!114 &11400000
MonoBehaviour:
  m_ObjectHideFlags: 0
  m_CorrespondingSourceObject: {fileID: 0}
  m_PrefabInstance: {fileID: 0}
  m_PrefabAsset: {fileID: 0}
  m_GameObject: {fileID: 0}
  m_Enabled: 1
  m_EditorHideFlags: 0
  m_Script: {fileID: 11500000, guid: 57017457d4f2db5eb8115039a1afc065, type: 3}
  m_Name: Leaf
  m_EditorClassIdentifier: 
  itemId: leaf
  itemName: leaf
  itemDescription: "\u3081\u3061\u3083\u304F\u3061\u3083\u7DD1\u8272\u306E\u8449\u3063\u3071"
  itemIcon: {fileID: 2800000, guid: 1725209d1cf5891eba1da5f737087386, type: 3}
