%YAML 1.1
%TAG !u! tag:unity3d.com,2011:
--- !u!114 &11400000
MonoBehaviour:
  m_ObjectHideFlags: 0
  m_CorrespondingSourceObject: {fileID: 0}
  m_PrefabInstance: {fileID: 0}
  m_PrefabAsset: {fileID: 0}
  m_GameObject: {fileID: 0}
  m_Enabled: 1
  m_EditorHideFlags: 0
  m_Script: {fileID: 11500000, guid: c6c8f2318bc9a0b72b33ec09ecdbd79c, type: 3}
  m_Name: taskDatabase
  m_EditorClassIdentifier: 
  taskLists:
  - {fileID: 11400000, guid: 57592d84211687cdbbfe78f4d9f41b70, type: 2}
