%YAML 1.1
%TAG !u! tag:unity3d.com,2011:
--- !u!21 &2100000
Material:
  serializedVersion: 6
  m_ObjectHideFlags: 0
  m_CorrespondingSourceObject: {fileID: 0}
  m_PrefabInstance: {fileID: 0}
  m_PrefabAsset: {fileID: 0}
  m_Name: mat_usa
  m_Shader: {fileID: 4800000, guid: 2e3b88d013383ada095c6ab76082afa4, type: 3}
  m_ShaderKeywords: 
  m_LightmapFlags: 4
  m_EnableInstancingVariants: 0
  m_DoubleSidedGI: 0
  m_CustomRenderQueue: -1
  stringTagMap: {}
  disabledShaderPasses: []
  m_SavedProperties:
    serializedVersion: 3
    m_TexEnvs:
    - _MainTex:
        m_Texture: {fileID: 0}
        m_Scale: {x: 1, y: 1}
        m_Offset: {x: 0, y: 0}
    m_Floats:
    - _NORMALINT: 0.6
    - _Precision: 8.38
    - _Seed: 2
    m_Colors:
    - _MainColor: {r: 0.5660378, g: 0.52290267, b: 0.43787828, a: 1}
    - _MainColorTwo: {r: 0.8773585, g: 0.84714496, b: 0.7697579, a: 1}
