%YAML 1.1
%TAG !u! tag:unity3d.com,2011:
--- !u!21 &2100000
Material:
  serializedVersion: 6
  m_ObjectHideFlags: 0
  m_CorrespondingSourceObject: {fileID: 0}
  m_PrefabInstance: {fileID: 0}
  m_PrefabAsset: {fileID: 0}
  m_Name: Mat_IkaFin
  m_Shader: {fileID: 4800000, guid: cf35a2842299692abba9ffb27d6f169b, type: 3}
  m_ShaderKeywords: 
  m_LightmapFlags: 4
  m_EnableInstancingVariants: 0
  m_DoubleSidedGI: 0
  m_CustomRenderQueue: -1
  stringTagMap: {}
  disabledShaderPasses: []
  m_SavedProperties:
    serializedVersion: 3
    m_TexEnvs: []
    m_Floats:
    - _ColorCenter: 0.47
    - _PigmentPow: 1.44
    - _PigmmentResolution: 0.7
    - _Precision: 3.9
    m_Colors:
    - _ColorA: {r: 0.9811321, g: 0, b: 0.28028214, a: 1}
    - _ColorB: {r: 0.92352915, g: 0.94509804, b: 0.5411765, a: 1}
    - _ColorC: {r: 0.40003443, g: 0, b: 0.5, a: 1}
